// Jest Snapshot v1, https://goo.gl/fbAQLP

exports[`<AppHeader /> AppHeader component renders correctly 1`] = `
"<AppHeader>
  <HeaderWrapper>
    <StyledComponent forwardedComponent={{...}} forwardedRef={{...}}>
      <Adapter className=\\"sc-bdVaJa hevUtw\\">
        <Basic prefixCls=\\"ant-layout-header\\" tagName=\\"header\\" className=\\"sc-bdVaJa hevUtw\\">
          <header className=\\"sc-bdVaJa hevUtw ant-layout-header\\">
            Shipments Finder
          </header>
        </Basic>
      </Adapter>
    </StyledComponent>
  </HeaderWrapper>
</AppHeader>"
`;
